…
``` r
# Compute the distance for all models defined above. 
# Create a helper function to map BOTH a1 intercept and a2 slope into the measure distance function with map2_dbl; passing c(a1, a2) into measure_distance will not map both variables into the measure_distance function.

sim1_dist <- function(a1, a2) {
  measure_distance(c(a1, a2), sim1)
}

# This will map both a1 & a2 into sim1_dist which will then create a vector of both a1 and a2 pairs to calculate a predicted y value before taking the difference from the actual y value in sim1 and returning the square root of the mean of the square of the difference as the distance "dist".
models <- models %>%
  mutate(dist = purrr::map2_dbl(a1, a2, sim1_dist))
models
```

    ## # A tibble: 250 × 3
    ##        a1     a2  dist
    ##     <dbl>  <dbl> <dbl>
    ##  1 -15.9  -4.24  57.7 
    ##  2  10.5   1.97   6.16
    ##  3   8.21  4.40  18.3 
    ##  4 -15.2  -1.56  40.7 
    ##  5  16.7   0.771  6.87
    ##  6  23.6  -2.73  15.5 
    ##  7 -11.7   1.64  18.3 
    ##  8   7.68 -3.35  30.6 
    ##  9   2.06 -1.21  22.3 
    ## 10  26.9   0.527 15.1 
    ## # ℹ 240 more rows
…
# Overlaying the best 10 models on the data
sim1a_dist <- function(a1, a2) {
  measure_distance(c(a1, a2), sim1a)
}
# This will map both a1 & a2 into sim1a_dist which will then create a vector of both a1 and a2 pairs to calculate a predicted y value before taking the difference from the actual y value in sim1a and returning the square root of the mean of the square of the difference as the distance "dist".
models <- models %>%
  mutate(dist = purrr::map2_dbl(a1, a2, sim1a_dist))
models
```

    ## # A tibble: 250 × 3
    ##        a1     a2  dist
    ##     <dbl>  <dbl> <dbl>
    ##  1  13.2  -2.24  19.9 
    ##  2  17.5  -1.21  11.8 
    ##  3  -2.41  2.43   8.46
    ##  4   4.11 -0.247 15.7 
    ##  5 -10.7   4.04  10.4 
    ##  6  24.4  -0.356 10.9 
    ##  7  33.7   0.608 22.3 
    ##  8  -7.83 -4.98  55.0 
    ##  9   2.45 -4.88  45.0 
    ## 10  18.9  -1.73  13.5 
    ## # ℹ 240 more rows
…
# Overlaying the best 10 models on the data
sim1a_dist <- function(a1, a2) {
  measure_distance(c(a1, a2), sim1a)
}
# This will map both a1 & a2 into sim1a_dist which will then create a vector of both a1 and a2 pairs to calculate a predicted y value before taking the difference from the actual y value in sim1a and returning the square root of the mean of the square of the difference as the distance "dist".
models <- models %>%
  mutate(dist = purrr::map2_dbl(a1, a2, sim1a_dist))
models
```

    ## # A tibble: 250 × 3
    ##          a1     a2  dist
    ##       <dbl>  <dbl> <dbl>
    ##  1  -1.22    4.53  13.0 
    ##  2  13.0    -3.92  30.0 
    ##  3  11.1    -1.99  20.1 
    ##  4 -18.7     0.366 33.5 
    ##  5   5.58   -3.65  34.7 
    ##  6   5.07    2.97   9.24
    ##  7 -11.5    -3.48  49.3 
    ##  8 -19.9    -1.24  44.0 
    ##  9   0.0610  2.46   7.26
    ## 10  26.0    -3.36  18.0 
    ## # ℹ 240 more rows
…
# Overlaying the best 10 models on the data
sim1a_dist <- function(a1, a2) {
  measure_distance(c(a1, a2), sim1a)
}
# This will map both a1 & a2 into sim1a_dist which will then create a vector of both a1 and a2 pairs to calculate a predicted y value before taking the difference from the actual y value in sim1a and returning the square root of the mean of the square of the difference as the distance "dist".
models <- models %>%
  mutate(dist = purrr::map2_dbl(a1, a2, sim1a_dist))
models
```

    ## # A tibble: 250 × 3
    ##       a1    a2  dist
    ##    <dbl> <dbl> <dbl>
    ##  1  5.02 -1.05 19.6 
    ##  2  7.56  4.48 19.2 
    ##  3 32.9  -1.62 14.0 
    ##  4 24.3   1.10 15.9 
    ##  5  5.19 -2.31 26.9 
    ##  6 24.1  -2.02 12.8 
    ##  7  6.56  2.49  8.12
    ##  8 25.6  -1.57 11.4 
    ##  9  8.95 -2.93 27.4 
    ## 10 34.7   2.33 32.2 
    ## # ℹ 240 more rows
…
## Section 23.3: Visualising Models

``` r
# https://r4ds.had.co.nz/model-basics.html
```

#### Section 23.3.1: Predictions

``` r
# Data grid: an evenly spaced grid of values that covers the region where the data lies.
sim1
```

    ## # A tibble: 30 × 2
    ##        x     y
    ##    <int> <dbl>
    ##  1     1  4.20
    ##  2     1  7.51
    ##  3     1  2.13
    ##  4     2  8.99
    ##  5     2 10.2 
    ##  6     2 11.3 
    ##  7     3  7.36
    ##  8     3 10.5 
    ##  9     3 10.5 
    ## 10     4 12.4 
    ## # ℹ 20 more rows
…
#### Section 23.3.2: Residuals

``` r
# Predictions indicate the pattern captured by the model, residuals indicate what the model failed to capture.
# Residuals are the differences between the observed and predicted values shown above.
sim1 <- sim1 %>% add_residuals(sim1_mod)
sim1
```

    ## # A tibble: 30 × 3
    ##        x     y    resid
    ##    <int> <dbl>    <dbl>
    ##  1     1  4.20 -2.07   
    ##  2     1  7.51  1.24   
    ##  3     1  2.13 -4.15   
    ##  4     2  8.99  0.665  
    ##  5     2 10.2   1.92   
    ##  6     2 11.3   2.97   
    ##  7     3  7.36 -3.02   
    ##  8     3 10.5   0.130  
    ##  9     3 10.5   0.136  
    ## 10     4 12.4   0.00763
    ## # ℹ 20 more rows
…
``` r
# Add the residuals of the model 
sim1_loess_residuals <- sim1 %>% add_residuals(sim_loess_mod)
sim1_loess_residuals
```

    ## # A tibble: 30 × 3
    ##        x     y  resid
    ##    <int> <dbl>  <dbl>
    ##  1     1  4.20 -1.14 
    ##  2     1  7.51  2.17 
    ##  3     1  2.13 -3.21 
    ##  4     2  8.99  0.714
    ##  5     2 10.2   1.97 
    ##  6     2 11.3   3.02 
    ##  7     3  7.36 -3.45 
    ##  8     3 10.5  -0.304
    ##  9     3 10.5  -0.298
    ## 10     4 12.4  -0.345
    ## # ℹ 20 more rows
…
## Section 23.4: Formulas and model families

#### Section 23.4.4: Transformations

``` r
sim5 <- tibble(
  x = seq(0, 3.5 * pi, length = 50),
  y = 4 * sin(x) + rnorm(length(x))
)
sim5
```

    ## # A tibble: 50 × 2
    ##        x       y
    ##    <dbl>   <dbl>
    ##  1 0     -0.289 
    ##  2 0.224  0.0508
    ##  3 0.449 -0.373 
    ##  4 0.673  2.56  
    ##  5 0.898  3.11  
    ##  6 1.12   3.29  
    ##  7 1.35   2.39  
    ##  8 1.57   3.31  
    ##  9 1.80   3.55  
    ## 10 2.02   3.28  
    ## # ℹ 40 more rows
…
grid <- sim5 %>%
  data_grid(x = seq_range(x, n = 50, expand = 0.1)) %>%
  gather_predictions(mod1, mod2, mod3, mod4, mod5, .pred = "y")
```

``` r
grid
```

    ## # A tibble: 250 × 3
    ##    model       x     y
    ##    <chr>   <dbl> <dbl>
    ##  1 mod1  -0.550   1.84
    ##  2 mod1  -0.303   1.78
    ##  3 mod1  -0.0561  1.72
    ##  4 mod1   0.191   1.66
    ##  5 mod1   0.438   1.60
    ##  6 mod1   0.684   1.54
    ##  7 mod1   0.931   1.47
    ##  8 mod1   1.18    1.41
    ##  9 mod1   1.42    1.35
    ## 10 mod1   1.67    1.29
    ## # ℹ 240 more rows
…
# grid <- sim5 %>% data_grid(x, range(x, n = 50, expand(0.1))
                           
                           
# grid <- sim5 %>% data_grid(x = seq_range(x, n = 50, expand = 0.1))
# grid <- sim3 %>% data_grid(x = seq_range(x, n = 50, expand = 0.1))
# grid <- sim4 %>% data_grid(x = seq_range(x, n = 50, expand = 0.1)) 
# a sequence of 50 points using sim2 as input. expanded by 0.1 to emphasize the effect of a Taylor polynomial beyond the bounds of the data.

# grid <- sim1 %>% data_grid(x = seq_range(x, n = 50, expand = 0.1)) %>% gather_predictions(mod1, mod2, mod3, mod4, mod5, .pred = "y")

grid <- seq2 %>% data_grid(x = seq_range(x, n = 50, expand = 0.1)) %>% gather_predictions(mod1, mod2, mod3, mod4, mod5, .pred = "y")
(grid)
```

    ## # A tibble: 250 × 3
    ##    model       x     y
    ##    <chr>   <dbl> <dbl>
    ##  1 mod1  -0.785  0.542
    ##  2 mod1  -0.433  0.521
    ##  3 mod1  -0.0801 0.500
    ##  4 mod1   0.272  0.478
    ##  5 mod1   0.625  0.457
    ##  6 mod1   0.978  0.435
    ##  7 mod1   1.33   0.414
    ##  8 mod1   1.68   0.393
    ##  9 mod1   2.04   0.371
    ## 10 mod1   2.39   0.350
    ## # ℹ 240 more rows
…
``` r
model_matrix(sim2, y~x)
```

    ## # A tibble: 40 × 4
    ##    `(Intercept)`    xb    xc    xd
    ##            <dbl> <dbl> <dbl> <dbl>
    ##  1             1     0     0     0
    ##  2             1     0     0     0
    ##  3             1     0     0     0
    ##  4             1     0     0     0
    ##  5             1     0     0     0
    ##  6             1     0     0     0
    ##  7             1     0     0     0
    ##  8             1     0     0     0
    ##  9             1     0     0     0
    ## 10             1     0     0     0
    ## # ℹ 30 more rows
…
``` r
model_matrix(sim2, y~x-1)
```

    ## # A tibble: 40 × 4
    ##       xa    xb    xc    xd
    ##    <dbl> <dbl> <dbl> <dbl>
    ##  1     1     0     0     0
    ##  2     1     0     0     0
    ##  3     1     0     0     0
    ##  4     1     0     0     0
    ##  5     1     0     0     0
    ##  6     1     0     0     0
    ##  7     1     0     0     0
    ##  8     1     0     0     0
    ##  9     1     0     0     0
    ## 10     1     0     0     0
    ## # ℹ 30 more rows
…
``` r
# Quesion 2
# Use model_matrix() to explore the equations generated for the models I fit to sim3 and sim4. Why is * a good shorthand for interaction?
# * is a good shorthand for interaction because + indicates the inclusion of another variable in a given equation. * indicates the interaction between the two variables.


# Sim3 models
# sim3_mod1 <- lm(y ~ x1 + x2, data = sim3)
# sim3_mod2 <- lm(y ~ x1 * x2, data = sim3)

model_matrix(sim3, y ~ x1 + x2)
```

    ## # A tibble: 120 × 5
    ##    `(Intercept)`    x1   x2b   x2c   x2d
    ##            <dbl> <dbl> <dbl> <dbl> <dbl>
    ##  1             1     1     0     0     0
    ##  2             1     1     0     0     0
    ##  3             1     1     0     0     0
    ##  4             1     1     1     0     0
    ##  5             1     1     1     0     0
    ##  6             1     1     1     0     0
    ##  7             1     1     0     1     0
    ##  8             1     1     0     1     0
    ##  9             1     1     0     1     0
    ## 10             1     1     0     0     1
    ## # ℹ 110 more rows

``` r
model_matrix(sim3, y ~ x1 * x2)
```

    ## # A tibble: 120 × 8
    ##    `(Intercept)`    x1   x2b   x2c   x2d `x1:x2b` `x1:x2c` `x1:x2d`
    ##            <dbl> <dbl> <dbl> <dbl> <dbl>    <dbl>    <dbl>    <dbl>
    ##  1             1     1     0     0     0        0        0        0
    ##  2             1     1     0     0     0        0        0        0
    ##  3             1     1     0     0     0        0        0        0
    ##  4             1     1     1     0     0        1        0        0
    ##  5             1     1     1     0     0        1        0        0
    ##  6             1     1     1     0     0        1        0        0
    ##  7             1     1     0     1     0        0        1        0
    ##  8             1     1     0     1     0        0        1        0
    ##  9             1     1     0     1     0        0        1        0
    ## 10             1     1     0     0     1        0        0        1
    ## # ℹ 110 more rows

``` r
# Sim4 models
# sim4_mod1 <- lm(y ~ x1 + x2, data = sim4)
# sim4_mod2 <- lm(y ~ x1 * x2, data = sim4)

model_matrix(sim4, y ~ x1 + x2)
```

    ## # A tibble: 300 × 3
    ##    `(Intercept)`    x1     x2
    ##            <dbl> <dbl>  <dbl>
    ##  1             1    -1 -1    
    ##  2             1    -1 -1    
    ##  3             1    -1 -1    
    ##  4             1    -1 -0.778
    ##  5             1    -1 -0.778
    ##  6             1    -1 -0.778
    ##  7             1    -1 -0.556
    ##  8             1    -1 -0.556
    ##  9             1    -1 -0.556
    ## 10             1    -1 -0.333
    ## # ℹ 290 more rows

``` r
model_matrix(sim4, y ~ x1 * x2)
```

    ## # A tibble: 300 × 4
    ##    `(Intercept)`    x1     x2 `x1:x2`
    ##            <dbl> <dbl>  <dbl>   <dbl>
    ##  1             1    -1 -1       1    
    ##  2             1    -1 -1       1    
    ##  3             1    -1 -1       1    
    ##  4             1    -1 -0.778   0.778
    ##  5             1    -1 -0.778   0.778
    ##  6             1    -1 -0.778   0.778
    ##  7             1    -1 -0.556   0.556
    ##  8             1    -1 -0.556   0.556
    ##  9             1    -1 -0.556   0.556
    ## 10             1    -1 -0.333   0.333
    ## # ℹ 290 more rows
…
    ## # A tibble: 4 × 2
    ##      x2     n
    ##   <dbl> <int>
    ## 1     1    30
    ## 2     2    30
    ## 3     3    30
    ## 4     4    30

``` r
mod1 <- lm(y ~ x1 + x2, data = sim3)

model_matrix(sim3, y ~ x1 + x2)
```

    ## # A tibble: 120 × 5
    ##    `(Intercept)`    x1   x2b   x2c   x2d
    ##            <dbl> <dbl> <dbl> <dbl> <dbl>
    ##  1             1     1     0     0     0
    ##  2             1     1     0     0     0
    ##  3             1     1     0     0     0
    ##  4             1     1     1     0     0
    ##  5             1     1     1     0     0
    ##  6             1     1     1     0     0
    ##  7             1     1     0     1     0
    ##  8             1     1     0     1     0
    ##  9             1     1     0     1     0
    ## 10             1     1     0     0     1
    ## # ℹ 110 more rows

``` r
# mod1 is expressed as y = a_0 + a_1 * x1 + a_2 * x2b + a_3 * x2c + a_4 * x2d
```

``` r
# Quesion 3
mod2 <- lm(y ~ x1 * x2, data = sim3)
model_matrix(sim3, y ~ x1 * x2)
```

    ## # A tibble: 120 × 8
    ##    `(Intercept)`    x1   x2b   x2c   x2d `x1:x2b` `x1:x2c` `x1:x2d`
    ##            <dbl> <dbl> <dbl> <dbl> <dbl>    <dbl>    <dbl>    <dbl>
    ##  1             1     1     0     0     0        0        0        0
    ##  2             1     1     0     0     0        0        0        0
    ##  3             1     1     0     0     0        0        0        0
    ##  4             1     1     1     0     0        1        0        0
    ##  5             1     1     1     0     0        1        0        0
    ##  6             1     1     1     0     0        1        0        0
    ##  7             1     1     0     1     0        0        1        0
    ##  8             1     1     0     1     0        0        1        0
    ##  9             1     1     0     1     0        0        1        0
    ## 10             1     1     0     0     1        0        0        1
    ## # ℹ 110 more rows
…
# Gathering predictions:
mod1 <- lm(y ~ x1 + x2, data = sim4)
mod2 <- lm(y ~ x1 * x2, data = sim4)

grid <- sim4 %>% 
  data_grid(
    x1 = seq_range(x1, 5), 
    x2 = seq_range(x2, 5) 
  ) %>% 
  gather_predictions(mod1, mod2)
grid
```

    ## # A tibble: 50 × 4
    ##    model    x1    x2   pred
    ##    <chr> <dbl> <dbl>  <dbl>
    ##  1 mod1   -1    -1    0.996
    ##  2 mod1   -1    -0.5 -0.395
    ##  3 mod1   -1     0   -1.79 
    ##  4 mod1   -1     0.5 -3.18 
    ##  5 mod1   -1     1   -4.57 
    ##  6 mod1   -0.5  -1    1.91 
    ##  7 mod1   -0.5  -0.5  0.516
    ##  8 mod1   -0.5   0   -0.875
    ##  9 mod1   -0.5   0.5 -2.27 
    ## 10 mod1   -0.5   1   -3.66 
    ## # ℹ 40 more rows

``` r
# Gathering Residuals
sim3
```

    ## # A tibble: 120 × 5
    ##       x1 x2      rep      y    sd
    ##    <int> <fct> <int>  <dbl> <dbl>
    ##  1     1 a         1 -0.571     2
    ##  2     1 a         2  1.18      2
    ##  3     1 a         3  2.24      2
    ##  4     1 b         1  7.44      2
    ##  5     1 b         2  8.52      2
    ##  6     1 b         3  7.72      2
    ##  7     1 c         1  6.51      2
    ##  8     1 c         2  5.79      2
    ##  9     1 c         3  6.07      2
    ## 10     1 d         1  2.11      2
    ## # ℹ 110 more rows

``` r
sim4
```

    ## # A tibble: 300 × 4
    ##       x1     x2   rep       y
    ##    <dbl>  <dbl> <int>   <dbl>
    ##  1    -1 -1         1  4.25  
    ##  2    -1 -1         2  1.21  
    ##  3    -1 -1         3  0.353 
    ##  4    -1 -0.778     1 -0.0467
    ##  5    -1 -0.778     2  4.64  
    ##  6    -1 -0.778     3  1.38  
    ##  7    -1 -0.556     1  0.975 
    ##  8    -1 -0.556     2  2.50  
    ##  9    -1 -0.556     3  2.70  
    ## 10    -1 -0.333     1  0.558 
    ## # ℹ 290 more rows

``` r
grid_residuals <- sim4 %>% gather_residuals(mod1, mod2)
grid_residuals
```

    ## # A tibble: 600 × 6
    ##    model    x1     x2   rep       y  resid
    ##    <chr> <dbl>  <dbl> <int>   <dbl>  <dbl>
    ##  1 mod1     -1 -1         1  4.25    3.25 
    ##  2 mod1     -1 -1         2  1.21    0.210
    ##  3 mod1     -1 -1         3  0.353  -0.643
    ##  4 mod1     -1 -0.778     1 -0.0467 -0.425
    ##  5 mod1     -1 -0.778     2  4.64    4.26 
    ##  6 mod1     -1 -0.778     3  1.38    0.999
    ##  7 mod1     -1 -0.556     1  0.975   1.22 
    ##  8 mod1     -1 -0.556     2  2.50    2.74 
    ##  9 mod1     -1 -0.556     3  2.70    2.95 
    ## 10 mod1     -1 -0.333     1  0.558   1.42 
    ## # ℹ 590 more rows
…
``` r
diamonds2 <- diamonds %>% filter(carat <= 2.5) %>% mutate(lprice = log2(price), lcarat = log2(carat))
diamonds2
```

    ## # A tibble: 53,814 × 12
    ##    carat cut     color clarity depth table price     x     y     z lprice lcarat
    ##    <dbl> <ord>   <ord> <ord>   <dbl> <dbl> <int> <dbl> <dbl> <dbl>  <dbl>  <dbl>
    ##  1  0.23 Ideal   E     SI2      61.5    55   326  3.95  3.98  2.43   8.35  -2.12
    ##  2  0.21 Premium E     SI1      59.8    61   326  3.89  3.84  2.31   8.35  -2.25
    ##  3  0.23 Good    E     VS1      56.9    65   327  4.05  4.07  2.31   8.35  -2.12
    ##  4  0.29 Premium I     VS2      62.4    58   334  4.2   4.23  2.63   8.38  -1.79
    ##  5  0.31 Good    J     SI2      63.3    58   335  4.34  4.35  2.75   8.39  -1.69
    ##  6  0.24 Very G… J     VVS2     62.8    57   336  3.94  3.96  2.48   8.39  -2.06
    ##  7  0.24 Very G… I     VVS1     62.3    57   336  3.95  3.98  2.47   8.39  -2.06
    ##  8  0.26 Very G… H     SI1      61.9    55   337  4.07  4.11  2.53   8.40  -1.94
    ##  9  0.22 Fair    E     VS2      65.1    61   337  3.87  3.78  2.49   8.40  -2.18
    ## 10  0.23 Very G… H     VS1      59.4    61   338  4     4.05  2.39   8.40  -2.12
    ## # ℹ 53,804 more rows
…
``` r
diamonds2
```

    ## # A tibble: 53,814 × 14
    ##    carat cut     color clarity depth table price     x     y     z lprice lcarat
    ##    <dbl> <ord>   <ord> <ord>   <dbl> <dbl> <int> <dbl> <dbl> <dbl>  <dbl>  <dbl>
    ##  1  0.23 Ideal   E     SI2      61.5    55   326  3.95  3.98  2.43   8.35  -2.12
    ##  2  0.21 Premium E     SI1      59.8    61   326  3.89  3.84  2.31   8.35  -2.25
    ##  3  0.23 Good    E     VS1      56.9    65   327  4.05  4.07  2.31   8.35  -2.12
    ##  4  0.29 Premium I     VS2      62.4    58   334  4.2   4.23  2.63   8.38  -1.79
    ##  5  0.31 Good    J     SI2      63.3    58   335  4.34  4.35  2.75   8.39  -1.69
    ##  6  0.24 Very G… J     VVS2     62.8    57   336  3.94  3.96  2.48   8.39  -2.06
    ##  7  0.24 Very G… I     VVS1     62.3    57   336  3.95  3.98  2.47   8.39  -2.06
    ##  8  0.26 Very G… H     SI1      61.9    55   337  4.07  4.11  2.53   8.40  -1.94
    ##  9  0.22 Fair    E     VS2      65.1    61   337  3.87  3.78  2.49   8.40  -2.18
    ## 10  0.23 Very G… H     VS1      59.4    61   338  4     4.05  2.39   8.40  -2.12
    ## # ℹ 53,804 more rows
    ## # ℹ 2 more variables: lresid <dbl>, resid <dbl>
…
