…
``` r
#> # A tibble: 12 × 4
#>   country      year type           count
#>   <chr>       <dbl> <chr>          <dbl>
#> 1 Afghanistan  1999 cases            745
#> 2 Afghanistan  1999 population  19987071
#> 3 Afghanistan  2000 cases           2666
#> 4 Afghanistan  2000 population  20595360
#> 5 Brazil       1999 cases          37737
#> 6 Brazil       1999 population 172006362
#> # ℹ 6 more rows
…
``` r
#> # A tibble: 12 × 4
#>   country      year type           count
#>   <chr>       <dbl> <chr>          <dbl>
#> 1 Afghanistan  1999 cases            745
#> 2 Afghanistan  1999 population  19987071
#> 3 Afghanistan  2000 cases           2666
#> 4 Afghanistan  2000 population  20595360
#> 5 Brazil       1999 cases          37737
#> 6 Brazil       1999 population 172006362
#> # ℹ 6 more rows
…
``` r
# Direction in fill will fill NA from a particular direction
```

``` r
who
```

    ## # A tibble: 7,240 × 60
    ##    country  iso2  iso3   year new_sp_m014 new_sp_m1524 new_sp_m2534 new_sp_m3544
    ##    <chr>    <chr> <chr> <dbl>       <dbl>        <dbl>        <dbl>        <dbl>
    ##  1 Afghani… AF    AFG    1980          NA           NA           NA           NA
    ##  2 Afghani… AF    AFG    1981          NA           NA           NA           NA
    ##  3 Afghani… AF    AFG    1982          NA           NA           NA           NA
    ##  4 Afghani… AF    AFG    1983          NA           NA           NA           NA
    ##  5 Afghani… AF    AFG    1984          NA           NA           NA           NA
    ##  6 Afghani… AF    AFG    1985          NA           NA           NA           NA
    ##  7 Afghani… AF    AFG    1986          NA           NA           NA           NA
    ##  8 Afghani… AF    AFG    1987          NA           NA           NA           NA
    ##  9 Afghani… AF    AFG    1988          NA           NA           NA           NA
    ## 10 Afghani… AF    AFG    1989          NA           NA           NA           NA
    ## # ℹ 7,230 more rows
    ## # ℹ 52 more variables: new_sp_m4554 <dbl>, new_sp_m5564 <dbl>,
    ## #   new_sp_m65 <dbl>, new_sp_f014 <dbl>, new_sp_f1524 <dbl>,
    ## #   new_sp_f2534 <dbl>, new_sp_f3544 <dbl>, new_sp_f4554 <dbl>,
    ## #   new_sp_f5564 <dbl>, new_sp_f65 <dbl>, new_sn_m014 <dbl>,
    ## #   new_sn_m1524 <dbl>, new_sn_m2534 <dbl>, new_sn_m3544 <dbl>,
    ## #   new_sn_m4554 <dbl>, new_sn_m5564 <dbl>, new_sn_m65 <dbl>, …

``` r
who1 <- who %>% pivot_longer(
  cols = new_sp_m014:newrel_f65, 
  names_to = "key",
  values_to = "cases",
  values_drop_na = TRUE
)
who1
```

    ## # A tibble: 76,046 × 6
    ##    country     iso2  iso3   year key          cases
    ##    <chr>       <chr> <chr> <dbl> <chr>        <dbl>
    ##  1 Afghanistan AF    AFG    1997 new_sp_m014      0
    ##  2 Afghanistan AF    AFG    1997 new_sp_m1524    10
    ##  3 Afghanistan AF    AFG    1997 new_sp_m2534     6
    ##  4 Afghanistan AF    AFG    1997 new_sp_m3544     3
    ##  5 Afghanistan AF    AFG    1997 new_sp_m4554     5
    ##  6 Afghanistan AF    AFG    1997 new_sp_m5564     2
    ##  7 Afghanistan AF    AFG    1997 new_sp_m65       0
    ##  8 Afghanistan AF    AFG    1997 new_sp_f014      5
    ##  9 Afghanistan AF    AFG    1997 new_sp_f1524    38
    ## 10 Afghanistan AF    AFG    1997 new_sp_f2534    36
    ## # ℹ 76,036 more rows

``` r
who1 %>% count(key)
```

    ## # A tibble: 56 × 2
    ##    key              n
    ##    <chr>        <int>
    ##  1 new_ep_f014   1032
    ##  2 new_ep_f1524  1021
    ##  3 new_ep_f2534  1021
    ##  4 new_ep_f3544  1021
    ##  5 new_ep_f4554  1017
    ##  6 new_ep_f5564  1017
    ##  7 new_ep_f65    1014
    ##  8 new_ep_m014   1038
    ##  9 new_ep_m1524  1026
    ## 10 new_ep_m2534  1020
    ## # ℹ 46 more rows

``` r
who2 <- who1 %>%
  mutate(key = stringr::str_replace(key, "newrel", "new_rel"))
who2
```

    ## # A tibble: 76,046 × 6
    ##    country     iso2  iso3   year key          cases
    ##    <chr>       <chr> <chr> <dbl> <chr>        <dbl>
    ##  1 Afghanistan AF    AFG    1997 new_sp_m014      0
    ##  2 Afghanistan AF    AFG    1997 new_sp_m1524    10
    ##  3 Afghanistan AF    AFG    1997 new_sp_m2534     6
    ##  4 Afghanistan AF    AFG    1997 new_sp_m3544     3
    ##  5 Afghanistan AF    AFG    1997 new_sp_m4554     5
    ##  6 Afghanistan AF    AFG    1997 new_sp_m5564     2
    ##  7 Afghanistan AF    AFG    1997 new_sp_m65       0
    ##  8 Afghanistan AF    AFG    1997 new_sp_f014      5
    ##  9 Afghanistan AF    AFG    1997 new_sp_f1524    38
    ## 10 Afghanistan AF    AFG    1997 new_sp_f2534    36
    ## # ℹ 76,036 more rows

``` r
who3 <- who2 %>%
  separate(key, c("new", "type", "sexage"))
who3
```

    ## # A tibble: 76,046 × 8
    ##    country     iso2  iso3   year new   type  sexage cases
    ##    <chr>       <chr> <chr> <dbl> <chr> <chr> <chr>  <dbl>
    ##  1 Afghanistan AF    AFG    1997 new   sp    m014       0
    ##  2 Afghanistan AF    AFG    1997 new   sp    m1524     10
    ##  3 Afghanistan AF    AFG    1997 new   sp    m2534      6
    ##  4 Afghanistan AF    AFG    1997 new   sp    m3544      3
    ##  5 Afghanistan AF    AFG    1997 new   sp    m4554      5
    ##  6 Afghanistan AF    AFG    1997 new   sp    m5564      2
    ##  7 Afghanistan AF    AFG    1997 new   sp    m65        0
    ##  8 Afghanistan AF    AFG    1997 new   sp    f014       5
    ##  9 Afghanistan AF    AFG    1997 new   sp    f1524     38
    ## 10 Afghanistan AF    AFG    1997 new   sp    f2534     36
    ## # ℹ 76,036 more rows
…
``` r
who4 <- who3 %>%
  select(-new, -iso2, -iso3)
```

``` r
who5 <- who4 %>%
  separate(sexage, c("sex", "age"), sep = 1)
who5
```

    ## # A tibble: 76,046 × 6
    ##    country      year type  sex   age   cases
    ##    <chr>       <dbl> <chr> <chr> <chr> <dbl>
    ##  1 Afghanistan  1997 sp    m     014       0
    ##  2 Afghanistan  1997 sp    m     1524     10
    ##  3 Afghanistan  1997 sp    m     2534      6
    ##  4 Afghanistan  1997 sp    m     3544      3
    ##  5 Afghanistan  1997 sp    m     4554      5
    ##  6 Afghanistan  1997 sp    m     5564      2
    ##  7 Afghanistan  1997 sp    m     65        0
    ##  8 Afghanistan  1997 sp    f     014       5
    ##  9 Afghanistan  1997 sp    f     1524     38
    ## 10 Afghanistan  1997 sp    f     2534     36
    ## # ℹ 76,036 more rows

``` r
who5 <- who4 %>%
  separate(sexage, c("sex", "age"), sep = 1)
who5
```

    ## # A tibble: 76,046 × 6
    ##    country      year type  sex   age   cases
    ##    <chr>       <dbl> <chr> <chr> <chr> <dbl>
    ##  1 Afghanistan  1997 sp    m     014       0
    ##  2 Afghanistan  1997 sp    m     1524     10
    ##  3 Afghanistan  1997 sp    m     2534      6
    ##  4 Afghanistan  1997 sp    m     3544      3
    ##  5 Afghanistan  1997 sp    m     4554      5
    ##  6 Afghanistan  1997 sp    m     5564      2
    ##  7 Afghanistan  1997 sp    m     65        0
    ##  8 Afghanistan  1997 sp    f     014       5
    ##  9 Afghanistan  1997 sp    f     1524     38
    ## 10 Afghanistan  1997 sp    f     2534     36
    ## # ℹ 76,036 more rows

``` r
# Checking for implicit missing values
# names()
n_who5 <- who5 %>% pivot_wider(names_from = year, values_from = cases) 
n_who5
```

    ## # A tibble: 10,980 × 38
    ##    country    type  sex   age   `1997` `1998` `1999` `2000` `2001` `2002` `2003`
    ##    <chr>      <chr> <chr> <chr>  <dbl>  <dbl>  <dbl>  <dbl>  <dbl>  <dbl>  <dbl>
    ##  1 Afghanist… sp    m     014        0     30      8     52    129     90    127
    ##  2 Afghanist… sp    m     1524      10    129     55    228    379    476    511
    ##  3 Afghanist… sp    m     2534       6    128     55    183    349    481    436
    ##  4 Afghanist… sp    m     3544       3     90     47    149    274    368    284
    ##  5 Afghanist… sp    m     4554       5     89     34    129    204    246    256
    ##  6 Afghanist… sp    m     5564       2     64     21     94    139    241    288
    ##  7 Afghanist… sp    m     65         0     41      8     80    103    189    203
    ##  8 Afghanist… sp    f     014        5     45     25     93    146    192    245
    ##  9 Afghanist… sp    f     1524      38    350    139    414    799   1119   1152
    ## 10 Afghanist… sp    f     2534      36    419    160    565    888   1251   1287
    ## # ℹ 10,970 more rows
    ## # ℹ 27 more variables: `2004` <dbl>, `2005` <dbl>, `2006` <dbl>, `2007` <dbl>,
    ## #   `2008` <dbl>, `2009` <dbl>, `2010` <dbl>, `2011` <dbl>, `2012` <dbl>,
    ## #   `2013` <dbl>, `1995` <dbl>, `1996` <dbl>, `1980` <dbl>, `1981` <dbl>,
    ## #   `1982` <dbl>, `1983` <dbl>, `1984` <dbl>, `1985` <dbl>, `1986` <dbl>,
    ## #   `1987` <dbl>, `1988` <dbl>, `1989` <dbl>, `1990` <dbl>, `1991` <dbl>,
    ## #   `1992` <dbl>, `1993` <dbl>, `1994` <dbl>

``` r
n_who5 %>% filter(is.na(`1997`))
```

    ## # A tibble: 8,866 × 38
    ##    country    type  sex   age   `1997` `1998` `1999` `2000` `2001` `2002` `2003`
    ##    <chr>      <chr> <chr> <chr>  <dbl>  <dbl>  <dbl>  <dbl>  <dbl>  <dbl>  <dbl>
    ##  1 Afghanist… sn    m     014       NA     NA     NA     NA     NA     NA     NA
    ##  2 Afghanist… sn    m     1524      NA     NA     NA     NA     NA     NA     NA
    ##  3 Afghanist… sn    m     2534      NA     NA     NA     NA     NA     NA     NA
    ##  4 Afghanist… sn    m     3544      NA     NA     NA     NA     NA     NA     NA
    ##  5 Afghanist… sn    m     4554      NA     NA     NA     NA     NA     NA     NA
    ##  6 Afghanist… sn    m     5564      NA     NA     NA     NA     NA     NA     NA
    ##  7 Afghanist… sn    m     65        NA     NA     NA     NA     NA     NA     NA
    ##  8 Afghanist… ep    m     014       NA     NA     NA     NA     NA     NA     NA
    ##  9 Afghanist… ep    m     1524      NA     NA     NA     NA     NA     NA     NA
    ## 10 Afghanist… ep    m     2534      NA     NA     NA     NA     NA     NA     NA
    ## # ℹ 8,856 more rows
    ## # ℹ 27 more variables: `2004` <dbl>, `2005` <dbl>, `2006` <dbl>, `2007` <dbl>,
    ## #   `2008` <dbl>, `2009` <dbl>, `2010` <dbl>, `2011` <dbl>, `2012` <dbl>,
    ## #   `2013` <dbl>, `1995` <dbl>, `1996` <dbl>, `1980` <dbl>, `1981` <dbl>,
    ## #   `1982` <dbl>, `1983` <dbl>, `1984` <dbl>, `1985` <dbl>, `1986` <dbl>,
    ## #   `1987` <dbl>, `1988` <dbl>, `1989` <dbl>, `1990` <dbl>, `1991` <dbl>,
    ## #   `1992` <dbl>, `1993` <dbl>, `1994` <dbl>
…
  separate(key, c("new", "var", "sexage")) %>%
  # select(-new, -iso2, -iso3) %>%
  separate(sexage, c("sex", "age"), sep = 1)
```

    ## # A tibble: 76,046 × 9
    ##    country     iso2  iso3   year new   var   sex   age   cases
    ##    <chr>       <chr> <chr> <dbl> <chr> <chr> <chr> <chr> <dbl>
    ##  1 Afghanistan AF    AFG    1997 new   sp    m     014       0
    ##  2 Afghanistan AF    AFG    1997 new   sp    m     1524     10
    ##  3 Afghanistan AF    AFG    1997 new   sp    m     2534      6
    ##  4 Afghanistan AF    AFG    1997 new   sp    m     3544      3
    ##  5 Afghanistan AF    AFG    1997 new   sp    m     4554      5
    ##  6 Afghanistan AF    AFG    1997 new   sp    m     5564      2
    ##  7 Afghanistan AF    AFG    1997 new   sp    m     65        0
    ##  8 Afghanistan AF    AFG    1997 new   sp    f     014       5
    ##  9 Afghanistan AF    AFG    1997 new   sp    f     1524     38
    ## 10 Afghanistan AF    AFG    1997 new   sp    f     2534     36
    ## # ℹ 76,036 more rows
…
  separate(key, c("new", "var", "sexage")) %>%
  # select(-new, -iso2, -iso3) %>%
  separate(sexage, c("sex", "age"), sep = 1)
```

    ## Warning: Expected 3 pieces. Missing pieces filled with `NA` in 2580 rows [243, 244, 679,
    ## 680, 681, 682, 683, 684, 685, 686, 687, 688, 689, 690, 691, 692, 903, 904, 905,
    ## 906, ...].

    ## # A tibble: 76,046 × 9
    ##    country     iso2  iso3   year new   var   sex   age   cases
    ##    <chr>       <chr> <chr> <dbl> <chr> <chr> <chr> <chr> <dbl>
    ##  1 Afghanistan AF    AFG    1997 new   sp    m     014       0
    ##  2 Afghanistan AF    AFG    1997 new   sp    m     1524     10
    ##  3 Afghanistan AF    AFG    1997 new   sp    m     2534      6
    ##  4 Afghanistan AF    AFG    1997 new   sp    m     3544      3
    ##  5 Afghanistan AF    AFG    1997 new   sp    m     4554      5
    ##  6 Afghanistan AF    AFG    1997 new   sp    m     5564      2
    ##  7 Afghanistan AF    AFG    1997 new   sp    m     65        0
    ##  8 Afghanistan AF    AFG    1997 new   sp    f     014       5
    ##  9 Afghanistan AF    AFG    1997 new   sp    f     1524     38
    ## 10 Afghanistan AF    AFG    1997 new   sp    f     2534     36
    ## # ℹ 76,036 more rows
…
  separate(key, c("new", "var", "sexage")) %>%
  # select(-new, -iso2, -iso3) %>%
  separate(sexage, c("sex", "age"), sep = 1)

(redundant) # this tibble has 76,046 observations
```

    ## # A tibble: 76,046 × 9
    ##    country     iso2  iso3   year new   var   sex   age   cases
    ##    <chr>       <chr> <chr> <dbl> <chr> <chr> <chr> <chr> <dbl>
    ##  1 Afghanistan AF    AFG    1997 new   sp    m     014       0
    ##  2 Afghanistan AF    AFG    1997 new   sp    m     1524     10
    ##  3 Afghanistan AF    AFG    1997 new   sp    m     2534      6
    ##  4 Afghanistan AF    AFG    1997 new   sp    m     3544      3
    ##  5 Afghanistan AF    AFG    1997 new   sp    m     4554      5
    ##  6 Afghanistan AF    AFG    1997 new   sp    m     5564      2
    ##  7 Afghanistan AF    AFG    1997 new   sp    m     65        0
    ##  8 Afghanistan AF    AFG    1997 new   sp    f     014       5
    ##  9 Afghanistan AF    AFG    1997 new   sp    f     1524     38
    ## 10 Afghanistan AF    AFG    1997 new   sp    f     2534     36
    ## # ℹ 76,036 more rows
…
  separate(key, c("new", "var", "sexage")) %>%
  select(-new, -iso2, -iso3) %>%
  separate(sexage, c("sex", "age"), sep = 1)

(redundant_dropped) # This contains the same number of observations: 76,046
```

    ## # A tibble: 76,046 × 6
    ##    country      year var   sex   age   cases
    ##    <chr>       <dbl> <chr> <chr> <chr> <dbl>
    ##  1 Afghanistan  1997 sp    m     014       0
    ##  2 Afghanistan  1997 sp    m     1524     10
    ##  3 Afghanistan  1997 sp    m     2534      6
    ##  4 Afghanistan  1997 sp    m     3544      3
    ##  5 Afghanistan  1997 sp    m     4554      5
    ##  6 Afghanistan  1997 sp    m     5564      2
    ##  7 Afghanistan  1997 sp    m     65        0
    ##  8 Afghanistan  1997 sp    f     014       5
    ##  9 Afghanistan  1997 sp    f     1524     38
    ## 10 Afghanistan  1997 sp    f     2534     36
    ## # ℹ 76,036 more rows

``` r
# %>% pivot_wider(names_from = country, values_from = iso2)
```

``` r
# 3 iso2 and iso3
# redundant %>% select(iso3)
(redundant)
```

    ## # A tibble: 76,046 × 9
    ##    country     iso2  iso3   year new   var   sex   age   cases
    ##    <chr>       <chr> <chr> <dbl> <chr> <chr> <chr> <chr> <dbl>
    ##  1 Afghanistan AF    AFG    1997 new   sp    m     014       0
    ##  2 Afghanistan AF    AFG    1997 new   sp    m     1524     10
    ##  3 Afghanistan AF    AFG    1997 new   sp    m     2534      6
    ##  4 Afghanistan AF    AFG    1997 new   sp    m     3544      3
    ##  5 Afghanistan AF    AFG    1997 new   sp    m     4554      5
    ##  6 Afghanistan AF    AFG    1997 new   sp    m     5564      2
    ##  7 Afghanistan AF    AFG    1997 new   sp    m     65        0
    ##  8 Afghanistan AF    AFG    1997 new   sp    f     014       5
    ##  9 Afghanistan AF    AFG    1997 new   sp    f     1524     38
    ## 10 Afghanistan AF    AFG    1997 new   sp    f     2534     36
    ## # ℹ 76,036 more rows
…
``` r
# There each country contains only one iso3

# There are no countries with more than one iso3 or contain a missing value of iso3
(redundant %>% group_by(country, year) %>% summarise() %>% count() %>% filter(n != 1 | is.na(n)))
```

    ## `summarise()` has grouped output by 'country'. You can override using the
    ## `.groups` argument.

    ## # A tibble: 219 × 2
    ## # Groups:   country [219]
    ##    country                 n
    ##    <chr>               <int>
    ##  1 Afghanistan            17
    ##  2 Albania                18
    ##  3 Algeria                16
    ##  4 American Samoa         13
    ##  5 Andorra                18
    ##  6 Angola                 19
    ##  7 Anguilla                6
    ##  8 Antigua and Barbuda    14
    ##  9 Argentina              18
    ## 10 Armenia                19
    ## # ℹ 209 more rows
…
``` r
(number_of_cases_per_country <- base_who_q4 %>% group_by(country, cases) %>% summarise()  %>% summarise(cases_per_country = sum(cases)))
```

    ## `summarise()` has grouped output by 'country'. You can override using the
    ## `.groups` argument.

    ## # A tibble: 219 × 2
    ##    country             cases_per_country
    ##    <chr>                           <dbl>
    ##  1 Afghanistan                    133196
    ##  2 Albania                           997
    ##  3 Algeria                        119854
    ##  4 American Samoa                      3
    ##  5 Andorra                            16
    ##  6 Angola                         298662
    ##  7 Anguilla                            1
    ##  8 Antigua and Barbuda                 6
    ##  9 Argentina                       88679
    ## 10 Armenia                          7656
    ## # ℹ 209 more rows

``` r
(number_of_cases_per_year <- base_who_q4 %>% group_by(year, cases) %>% summarise() %>% summarise(cases_per_year = sum(cases)))
```

    ## `summarise()` has grouped output by 'year'. You can override using the
    ## `.groups` argument.

    ## # A tibble: 34 × 2
    ##     year cases_per_year
    ##    <dbl>          <dbl>
    ##  1  1980            957
    ##  2  1981            804
    ##  3  1982            818
    ##  4  1983            731
    ##  5  1984            784
    ##  6  1985            794
    ##  7  1986            647
    ##  8  1987            669
    ##  9  1988            682
    ## 10  1989            653
    ## # ℹ 24 more rows
…
``` r
# Quesion 4
# I would want the following values in the table: holiday, month, day, year, number_of_people. The primary key would be the year, month, day and the foreign key would be the year, month, day in flights.
```

#### Section 13.3 Keys

#### Section 13.3.1 Exercises

``` r
surogate_key <- nycflights13::flights
surogate_key %>% mutate(surogate_key = row_number()) %>% select(surogate_key, everything())
```

    ## # A tibble: 336,776 × 20
    ##    surogate_key  year month   day dep_time sched_dep_time dep_delay arr_time
    ##           <int> <int> <int> <int>    <int>          <int>     <dbl>    <int>
    ##  1            1  2013     1     1      517            515         2      830
    ##  2            2  2013     1     1      533            529         4      850
    ##  3            3  2013     1     1      542            540         2      923
    ##  4            4  2013     1     1      544            545        -1     1004
    ##  5            5  2013     1     1      554            600        -6      812
    ##  6            6  2013     1     1      554            558        -4      740
    ##  7            7  2013     1     1      555            600        -5      913
    ##  8            8  2013     1     1      557            600        -3      709
    ##  9            9  2013     1     1      557            600        -3      838
    ## 10           10  2013     1     1      558            600        -2      753
    ## # ℹ 336,766 more rows
    ## # ℹ 12 more variables: sched_arr_time <int>, arr_delay <dbl>, carrier <chr>,
    ## #   flight <int>, tailnum <chr>, origin <chr>, dest <chr>, air_time <dbl>,
    ## #   distance <dbl>, hour <dbl>, minute <dbl>, time_hour <dttm>
…
