…
``` r
mpg
```

    ## # A tibble: 234 × 11
    ##    manufacturer model      displ  year   cyl trans drv     cty   hwy fl    class
    ##    <chr>        <chr>      <dbl> <int> <int> <chr> <chr> <int> <int> <chr> <chr>
    ##  1 audi         a4           1.8  1999     4 auto… f        18    29 p     comp…
    ##  2 audi         a4           1.8  1999     4 manu… f        21    29 p     comp…
    ##  3 audi         a4           2    2008     4 manu… f        20    31 p     comp…
    ##  4 audi         a4           2    2008     4 auto… f        21    30 p     comp…
    ##  5 audi         a4           2.8  1999     6 auto… f        16    26 p     comp…
    ##  6 audi         a4           2.8  1999     6 manu… f        18    26 p     comp…
    ##  7 audi         a4           3.1  2008     6 auto… f        18    27 p     comp…
    ##  8 audi         a4 quattro   1.8  1999     4 manu… 4        18    26 p     comp…
    ##  9 audi         a4 quattro   1.8  1999     4 auto… 4        16    25 p     comp…
    ## 10 audi         a4 quattro   2    2008     4 manu… 4        20    28 p     comp…
    ## # ℹ 224 more rows
…
``` r
filter(mpg, cyl == 8)
```

    ## # A tibble: 70 × 11
    ##    manufacturer model      displ  year   cyl trans drv     cty   hwy fl    class
    ##    <chr>        <chr>      <dbl> <int> <int> <chr> <chr> <int> <int> <chr> <chr>
    ##  1 audi         a6 quattro   4.2  2008     8 auto… 4        16    23 p     mids…
    ##  2 chevrolet    c1500 sub…   5.3  2008     8 auto… r        14    20 r     suv  
    ##  3 chevrolet    c1500 sub…   5.3  2008     8 auto… r        11    15 e     suv  
    ##  4 chevrolet    c1500 sub…   5.3  2008     8 auto… r        14    20 r     suv  
    ##  5 chevrolet    c1500 sub…   5.7  1999     8 auto… r        13    17 r     suv  
    ##  6 chevrolet    c1500 sub…   6    2008     8 auto… r        12    17 r     suv  
    ##  7 chevrolet    corvette     5.7  1999     8 manu… r        16    26 p     2sea…
    ##  8 chevrolet    corvette     5.7  1999     8 auto… r        15    23 p     2sea…
    ##  9 chevrolet    corvette     6.2  2008     8 manu… r        16    26 p     2sea…
    ## 10 chevrolet    corvette     6.2  2008     8 auto… r        15    25 p     2sea…
    ## # ℹ 60 more rows

``` r
filter(diamonds, carat > 3)
```

    ## # A tibble: 32 × 10
    ##    carat cut     color clarity depth table price     x     y     z
    ##    <dbl> <ord>   <ord> <ord>   <dbl> <dbl> <int> <dbl> <dbl> <dbl>
    ##  1  3.01 Premium I     I1       62.7    58  8040  9.1   8.97  5.67
    ##  2  3.11 Fair    J     I1       65.9    57  9823  9.15  9.02  5.98
    ##  3  3.01 Premium F     I1       62.2    56  9925  9.24  9.13  5.73
    ##  4  3.05 Premium E     I1       60.9    58 10453  9.26  9.25  5.66
    ##  5  3.02 Fair    I     I1       65.2    56 10577  9.11  9.02  5.91
    ##  6  3.01 Fair    H     I1       56.1    62 10761  9.54  9.38  5.31
    ##  7  3.65 Fair    H     I1       67.1    53 11668  9.53  9.48  6.38
    ##  8  3.24 Premium H     I1       62.1    58 12300  9.44  9.4   5.85
    ##  9  3.22 Ideal   I     I1       62.6    55 12545  9.49  9.42  5.92
    ## 10  3.5  Ideal   H     I1       62.8    57 12587  9.65  9.59  6.03
    ## # ℹ 22 more rows
## 5 Data Transformation

``` r
if(!require("nycflights13")) install.packages("nycflights13")
library(nycflights13)
library(tidyverse)
```

### 5.2 Filter

``` r
filter(flights, month == 1, day == 1)
```

    ## # A tibble: 842 × 19
    ##     year month   day dep_time sched_dep_time dep_delay arr_time sched_arr_time
    ##    <int> <int> <int>    <int>          <int>     <dbl>    <int>          <int>
    ##  1  2013     1     1      517            515         2      830            819
    ##  2  2013     1     1      533            529         4      850            830
    ##  3  2013     1     1      542            540         2      923            850
    ##  4  2013     1     1      544            545        -1     1004           1022
    ##  5  2013     1     1      554            600        -6      812            837
    ##  6  2013     1     1      554            558        -4      740            728
    ##  7  2013     1     1      555            600        -5      913            854
    ##  8  2013     1     1      557            600        -3      709            723
    ##  9  2013     1     1      557            600        -3      838            846
    ## 10  2013     1     1      558            600        -2      753            745
    ## # ℹ 832 more rows
    ## # ℹ 11 more variables: arr_delay <dbl>, carrier <chr>, flight <int>,
    ## #   tailnum <chr>, origin <chr>, dest <chr>, air_time <dbl>, distance <dbl>,
    ## #   hour <dbl>, minute <dbl>, time_hour <dttm>
…
    ## [1] FALSE

``` r
xor(FALSE, TRUE)
```

    ## [1] TRUE

``` r
filter(flights, month == 11 | month == 12)
```

    ## # A tibble: 55,403 × 19
    ##     year month   day dep_time sched_dep_time dep_delay arr_time sched_arr_time
    ##    <int> <int> <int>    <int>          <int>     <dbl>    <int>          <int>
    ##  1  2013    11     1        5           2359         6      352            345
    ##  2  2013    11     1       35           2250       105      123           2356
    ##  3  2013    11     1      455            500        -5      641            651
    ##  4  2013    11     1      539            545        -6      856            827
    ##  5  2013    11     1      542            545        -3      831            855
    ##  6  2013    11     1      549            600       -11      912            923
    ##  7  2013    11     1      550            600       -10      705            659
    ##  8  2013    11     1      554            600        -6      659            701
    ##  9  2013    11     1      554            600        -6      826            827
    ## 10  2013    11     1      554            600        -6      749            751
    ## # ℹ 55,393 more rows
    ## # ℹ 11 more variables: arr_delay <dbl>, carrier <chr>, flight <int>,
    ## #   tailnum <chr>, origin <chr>, dest <chr>, air_time <dbl>, distance <dbl>,
    ## #   hour <dbl>, minute <dbl>, time_hour <dttm>

``` r
# Finding months equal to november or december
nov_dec <- filter(flights, month %in% c(11, 12))
nov_dec
```

    ## # A tibble: 55,403 × 19
    ##     year month   day dep_time sched_dep_time dep_delay arr_time sched_arr_time
    ##    <int> <int> <int>    <int>          <int>     <dbl>    <int>          <int>
    ##  1  2013    11     1        5           2359         6      352            345
    ##  2  2013    11     1       35           2250       105      123           2356
    ##  3  2013    11     1      455            500        -5      641            651
    ##  4  2013    11     1      539            545        -6      856            827
    ##  5  2013    11     1      542            545        -3      831            855
    ##  6  2013    11     1      549            600       -11      912            923
    ##  7  2013    11     1      550            600       -10      705            659
    ##  8  2013    11     1      554            600        -6      659            701
    ##  9  2013    11     1      554            600        -6      826            827
    ## 10  2013    11     1      554            600        -6      749            751
    ## # ℹ 55,393 more rows
    ## # ℹ 11 more variables: arr_delay <dbl>, carrier <chr>, flight <int>,
    ## #   tailnum <chr>, origin <chr>, dest <chr>, air_time <dbl>, distance <dbl>,
    ## #   hour <dbl>, minute <dbl>, time_hour <dttm>

#### 5.2.4 Exercises

``` r
(arr_delay_2_or_more_hours <- filter(flights, arr_delay >= 120))
```

    ## # A tibble: 10,200 × 19
    ##     year month   day dep_time sched_dep_time dep_delay arr_time sched_arr_time
    ##    <int> <int> <int>    <int>          <int>     <dbl>    <int>          <int>
    ##  1  2013     1     1      811            630       101     1047            830
    ##  2  2013     1     1      848           1835       853     1001           1950
    ##  3  2013     1     1      957            733       144     1056            853
    ##  4  2013     1     1     1114            900       134     1447           1222
    ##  5  2013     1     1     1505           1310       115     1638           1431
    ##  6  2013     1     1     1525           1340       105     1831           1626
    ##  7  2013     1     1     1549           1445        64     1912           1656
    ##  8  2013     1     1     1558           1359       119     1718           1515
    ##  9  2013     1     1     1732           1630        62     2028           1825
    ## 10  2013     1     1     1803           1620       103     2008           1750
    ## # ℹ 10,190 more rows
    ## # ℹ 11 more variables: arr_delay <dbl>, carrier <chr>, flight <int>,
    ## #   tailnum <chr>, origin <chr>, dest <chr>, air_time <dbl>, distance <dbl>,
    ## #   hour <dbl>, minute <dbl>, time_hour <dttm>

``` r
(filter(flights, dest %in% c("IAH", "HOU")))
```

    ## # A tibble: 9,313 × 19
    ##     year month   day dep_time sched_dep_time dep_delay arr_time sched_arr_time
    ##    <int> <int> <int>    <int>          <int>     <dbl>    <int>          <int>
    ##  1  2013     1     1      517            515         2      830            819
    ##  2  2013     1     1      533            529         4      850            830
    ##  3  2013     1     1      623            627        -4      933            932
    ##  4  2013     1     1      728            732        -4     1041           1038
    ##  5  2013     1     1      739            739         0     1104           1038
    ##  6  2013     1     1      908            908         0     1228           1219
    ##  7  2013     1     1     1028           1026         2     1350           1339
    ##  8  2013     1     1     1044           1045        -1     1352           1351
    ##  9  2013     1     1     1114            900       134     1447           1222
    ## 10  2013     1     1     1205           1200         5     1503           1505
    ## # ℹ 9,303 more rows
    ## # ℹ 11 more variables: arr_delay <dbl>, carrier <chr>, flight <int>,
    ## #   tailnum <chr>, origin <chr>, dest <chr>, air_time <dbl>, distance <dbl>,
    ## #   hour <dbl>, minute <dbl>, time_hour <dttm>

``` r
(filter(flights, carrier %in% c("UA", "AA", "Delta")))
```

    ## # A tibble: 91,394 × 19
    ##     year month   day dep_time sched_dep_time dep_delay arr_time sched_arr_time
    ##    <int> <int> <int>    <int>          <int>     <dbl>    <int>          <int>
    ##  1  2013     1     1      517            515         2      830            819
    ##  2  2013     1     1      533            529         4      850            830
    ##  3  2013     1     1      542            540         2      923            850
    ##  4  2013     1     1      554            558        -4      740            728
    ##  5  2013     1     1      558            600        -2      753            745
    ##  6  2013     1     1      558            600        -2      924            917
    ##  7  2013     1     1      558            600        -2      923            937
    ##  8  2013     1     1      559            600        -1      941            910
    ##  9  2013     1     1      559            600        -1      854            902
    ## 10  2013     1     1      606            610        -4      858            910
    ## # ℹ 91,384 more rows
    ## # ℹ 11 more variables: arr_delay <dbl>, carrier <chr>, flight <int>,
    ## #   tailnum <chr>, origin <chr>, dest <chr>, air_time <dbl>, distance <dbl>,
    ## #   hour <dbl>, minute <dbl>, time_hour <dttm>

``` r
(filter(flights, month %in% c(7, 8, 9)))
```

    ## # A tibble: 86,326 × 19
    ##     year month   day dep_time sched_dep_time dep_delay arr_time sched_arr_time
    ##    <int> <int> <int>    <int>          <int>     <dbl>    <int>          <int>
    ##  1  2013     7     1        1           2029       212      236           2359
    ##  2  2013     7     1        2           2359         3      344            344
    ##  3  2013     7     1       29           2245       104      151              1
    ##  4  2013     7     1       43           2130       193      322             14
    ##  5  2013     7     1       44           2150       174      300            100
    ##  6  2013     7     1       46           2051       235      304           2358
    ##  7  2013     7     1       48           2001       287      308           2305
    ##  8  2013     7     1       58           2155       183      335             43
    ##  9  2013     7     1      100           2146       194      327             30
    ## 10  2013     7     1      100           2245       135      337            135
    ## # ℹ 86,316 more rows
    ## # ℹ 11 more variables: arr_delay <dbl>, carrier <chr>, flight <int>,
    ## #   tailnum <chr>, origin <chr>, dest <chr>, air_time <dbl>, distance <dbl>,
    ## #   hour <dbl>, minute <dbl>, time_hour <dttm>

``` r
(filter(flights, arr_delay == 0, arr_time > 120))
```

    ## # A tibble: 5,346 × 19
    ##     year month   day dep_time sched_dep_time dep_delay arr_time sched_arr_time
    ##    <int> <int> <int>    <int>          <int>     <dbl>    <int>          <int>
    ##  1  2013     1     1      627            630        -3     1018           1018
    ##  2  2013     1     1      807            810        -3     1043           1043
    ##  3  2013     1     1      956           1000        -4     1241           1241
    ##  4  2013     1     1     1124           1125        -1     1445           1445
    ##  5  2013     1     1     1219           1220        -1     1415           1415
    ##  6  2013     1     1     1240           1235         5     1415           1415
    ##  7  2013     1     1     1248           1250        -2     1607           1607
    ##  8  2013     1     1     1333           1335        -2     1608           1608
    ##  9  2013     1     1     1459           1501        -2     1651           1651
    ## 10  2013     1     1     1510           1517        -7     1811           1811
    ## # ℹ 5,336 more rows
    ## # ℹ 11 more variables: arr_delay <dbl>, carrier <chr>, flight <int>,
    ## #   tailnum <chr>, origin <chr>, dest <chr>, air_time <dbl>, distance <dbl>,
    ## #   hour <dbl>, minute <dbl>, time_hour <dttm>

``` r
(filter(flights, arr_delay >= 60, arr_time < 30))
```

    ## # A tibble: 1,410 × 19
    ##     year month   day dep_time sched_dep_time dep_delay arr_time sched_arr_time
    ##    <int> <int> <int>    <int>          <int>     <dbl>    <int>          <int>
    ##  1  2013     1     1     2312           2000       192       21           2110
    ##  2  2013     1     1     2323           2200        83       22           2313
    ##  3  2013     1     2     2313           2125       108       20           2240
    ##  4  2013     1     4     2058           1730       208        2           2110
    ##  5  2013     1     4     2208           1946       142        7           2154
    ##  6  2013     1     7     2124           1940       104       19           2249
    ##  7  2013     1     9     2158           1930       148       18           2213
    ##  8  2013     1    10     2137           1630       307       17           1925
    ##  9  2013     1    11     2125           1935       110       12           2240
    ## 10  2013     1    11     2141           1800       221       20           2015
    ## # ℹ 1,400 more rows
    ## # ℹ 11 more variables: arr_delay <dbl>, carrier <chr>, flight <int>,
    ## #   tailnum <chr>, origin <chr>, dest <chr>, air_time <dbl>, distance <dbl>,
    ## #   hour <dbl>, minute <dbl>, time_hour <dttm>

``` r
(filter(flights, sched_dep_time > 0, sched_dep_time < 600))
```

    ## # A tibble: 1,954 × 19
    ##     year month   day dep_time sched_dep_time dep_delay arr_time sched_arr_time
    ##    <int> <int> <int>    <int>          <int>     <dbl>    <int>          <int>
    ##  1  2013     1     1      517            515         2      830            819
    ##  2  2013     1     1      533            529         4      850            830
    ##  3  2013     1     1      542            540         2      923            850
    ##  4  2013     1     1      544            545        -1     1004           1022
    ##  5  2013     1     1      554            558        -4      740            728
    ##  6  2013     1     1      559            559         0      702            706
    ##  7  2013     1     2      458            500        -2      703            650
    ##  8  2013     1     2      512            515        -3      809            819
    ##  9  2013     1     2      535            540        -5      831            850
    ## 10  2013     1     2      536            529         7      840            828
    ## # ℹ 1,944 more rows
    ## # ℹ 11 more variables: arr_delay <dbl>, carrier <chr>, flight <int>,
    ## #   tailnum <chr>, origin <chr>, dest <chr>, air_time <dbl>, distance <dbl>,
    ## #   hour <dbl>, minute <dbl>, time_hour <dttm>

``` r
(filter(flights, between(sched_dep_time, 0, 600))) # between is inclusive of the left and right ends
```

    ## # A tibble: 8,970 × 19
    ##     year month   day dep_time sched_dep_time dep_delay arr_time sched_arr_time
    ##    <int> <int> <int>    <int>          <int>     <dbl>    <int>          <int>
    ##  1  2013     1     1      517            515         2      830            819
    ##  2  2013     1     1      533            529         4      850            830
    ##  3  2013     1     1      542            540         2      923            850
    ##  4  2013     1     1      544            545        -1     1004           1022
    ##  5  2013     1     1      554            600        -6      812            837
    ##  6  2013     1     1      554            558        -4      740            728
    ##  7  2013     1     1      555            600        -5      913            854
    ##  8  2013     1     1      557            600        -3      709            723
    ##  9  2013     1     1      557            600        -3      838            846
    ## 10  2013     1     1      558            600        -2      753            745
    ## # ℹ 8,960 more rows
    ## # ℹ 11 more variables: arr_delay <dbl>, carrier <chr>, flight <int>,
    ## #   tailnum <chr>, origin <chr>, dest <chr>, air_time <dbl>, distance <dbl>,
    ## #   hour <dbl>, minute <dbl>, time_hour <dttm>
…
